{
  "id": "ed899a2f4b50b4370feeea94676502b42383c746",
  "short_id": "ed899a2f4b5",
  "title": "some commit message",
  "author_name": "Dmitriy Zaporozhets",
  "author_email": "dzaporozhets@sphereconsultinginc.com",
  "committer_name": "Dmitriy Zaporozhets",
  "committer_email": "dzaporozhets@sphereconsultinginc.com",
  "created_at": "2016-09-20T09:26:24.000-07:00",
  "message": "some commit message",
  "parent_ids": [
    "ae1d9fb46aa2b07ee9836d49862ec4e2c46fbbba"
  ],
  "committed_date": "2016-09-20T09:26:24.000-07:00",
  "authored_date": "2016-09-20T09:26:24.000-07:00",
  "stats": {
    "additions": 2,
    "deletions": 2,
    "total": 4
  },
  "status": null
}
